id,'True,'False,'False,'True,'False,'True,Precision,Recall,Fallout,FMeasure,'Sample,Lift,Threshold
1,54,0,144,0,1,1,0.272727,1,0.727273,0.428571,1,1,0
2,54,0,137,7,0.951389,1,0.282723,1,0.717277,0.440816,0.964646,1.036649,0.166667
3,54,0,52,92,0.361111,1,0.509434,1,0.490566,0.675,0.535354,1.867925,0.333333
4,53,1,1,143,0.006944,0.981481,0.981481,0.981481,0.018519,0.981481,0.272727,3.598765,0.5
5,0,54,0,144,0,0,?,0,?,?,0,?,0.50001
6,54,0,144,0,1,1,0.272727,1,0.727273,0.428571,1,1,0
7,54,0,143,1,0.993056,1,0.274112,1,0.725888,0.430279,0.994949,1.005076,0
8,54,0,142,2,0.986111,1,0.27551,1,0.72449,0.432,0.989899,1.010204,0
9,54,0,141,3,0.979167,1,0.276923,1,0.723077,0.433735,0.984848,1.015385,0.000004
10,54,0,140,4,0.972222,1,0.278351,1,0.721649,0.435484,0.979798,1.020619,0.000005
11,54,0,139,5,0.965278,1,0.279793,1,0.720207,0.437247,0.974747,1.025907,0.000007
12,54,0,138,6,0.958333,1,0.28125,1,0.71875,0.439024,0.969697,1.03125,0.000007
13,54,0,137,7,0.951389,1,0.282723,1,0.717277,0.440816,0.964646,1.036649,0.000007
14,54,0,136,8,0.944444,1,0.284211,1,0.715789,0.442623,0.959596,1.042105,0.000014
15,54,0,135,9,0.9375,1,0.285714,1,0.714286,0.444444,0.954545,1.047619,0.000017
16,54,0,134,10,0.930556,1,0.287234,1,0.712766,0.446281,0.949495,1.053191,0.00002
17,54,0,133,11,0.923611,1,0.28877,1,0.71123,0.448133,0.944444,1.058824,0.00003
18,54,0,132,12,0.916667,1,0.290323,1,0.709677,0.45,0.939394,1.064516,0.000045
19,54,0,131,13,0.909722,1,0.291892,1,0.708108,0.451883,0.934343,1.07027,0.000054
20,54,0,130,14,0.902778,1,0.293478,1,0.706522,0.453782,0.929293,1.076087,0.000056
21,54,0,129,15,0.895833,1,0.295082,1,0.704918,0.455696,0.924242,1.081967,0.000057
22,54,0,128,16,0.888889,1,0.296703,1,0.703297,0.457627,0.919192,1.087912,0.000057
23,54,0,127,17,0.881944,1,0.298343,1,0.701657,0.459574,0.914141,1.093923,0.000076
24,54,0,126,18,0.875,1,0.3,1,0.7,0.461538,0.909091,1.1,0.000077
25,54,0,125,19,0.868056,1,0.301676,1,0.698324,0.463519,0.90404,1.106145,0.000077
26,54,0,124,20,0.861111,1,0.303371,1,0.696629,0.465517,0.89899,1.11236,0.000078
27,54,0,123,21,0.854167,1,0.305085,1,0.694915,0.467532,0.893939,1.118644,0.000095
28,54,0,122,22,0.847222,1,0.306818,1,0.693182,0.469565,0.888889,1.125,0.000097
29,54,0,121,23,0.840278,1,0.308571,1,0.691429,0.471616,0.883838,1.131429,0.000107
30,54,0,120,24,0.833333,1,0.310345,1,0.689655,0.473684,0.878788,1.137931,0.000112
31,54,0,119,25,0.826389,1,0.312139,1,0.687861,0.475771,0.873737,1.144509,0.000119
32,54,0,118,26,0.819444,1,0.313953,1,0.686047,0.477876,0.868687,1.151163,0.000122
33,54,0,117,27,0.8125,1,0.315789,1,0.684211,0.48,0.863636,1.157895,0.000129
34,54,0,116,28,0.805556,1,0.317647,1,0.682353,0.482143,0.858586,1.164706,0.000132
35,54,0,115,29,0.798611,1,0.319527,1,0.680473,0.484305,0.853535,1.171598,0.000149
36,54,0,114,30,0.791667,1,0.321429,1,0.678571,0.486486,0.848485,1.178571,0.000153
37,54,0,113,31,0.784722,1,0.323353,1,0.676647,0.488688,0.843434,1.185629,0.000159
38,54,0,112,32,0.777778,1,0.325301,1,0.674699,0.490909,0.838384,1.192771,0.000171
39,54,0,111,33,0.770833,1,0.327273,1,0.672727,0.493151,0.833333,1.2,0.000171
40,54,0,110,34,0.763889,1,0.329268,1,0.670732,0.495413,0.828283,1.207317,0.000179
41,54,0,109,35,0.756944,1,0.331288,1,0.668712,0.497696,0.823232,1.214724,0.000189
42,54,0,108,36,0.75,1,0.333333,1,0.666667,0.5,0.818182,1.222222,0.000189
43,54,0,107,37,0.743056,1,0.335404,1,0.664596,0.502326,0.813131,1.229814,0.000197
44,54,0,106,38,0.736111,1,0.3375,1,0.6625,0.504673,0.808081,1.2375,0.000221
45,54,0,105,39,0.729167,1,0.339623,1,0.660377,0.507042,0.80303,1.245283,0.000227
46,54,0,104,40,0.722222,1,0.341772,1,0.658228,0.509434,0.79798,1.253165,0.000228
47,54,0,103,41,0.715278,1,0.343949,1,0.656051,0.511848,0.792929,1.261146,0.000231
48,54,0,102,42,0.708333,1,0.346154,1,0.653846,0.514286,0.787879,1.269231,0.000243
49,54,0,101,43,0.701389,1,0.348387,1,0.651613,0.516746,0.782828,1.277419,0.000258
50,54,0,100,44,0.694444,1,0.350649,1,0.649351,0.519231,0.777778,1.285714,0.00028
51,54,0,99,45,0.6875,1,0.352941,1,0.647059,0.521739,0.772727,1.294118,0.000293
52,54,0,98,46,0.680556,1,0.355263,1,0.644737,0.524272,0.767677,1.302632,0.000301
53,54,0,97,47,0.673611,1,0.357616,1,0.642384,0.526829,0.762626,1.311258,0.000318
54,54,0,96,48,0.666667,1,0.36,1,0.64,0.529412,0.757576,1.32,0.000327
55,54,0,95,49,0.659722,1,0.362416,1,0.637584,0.53202,0.752525,1.328859,0.000339
56,54,0,94,50,0.652778,1,0.364865,1,0.635135,0.534653,0.747475,1.337838,0.000383
57,54,0,93,51,0.645833,1,0.367347,1,0.632653,0.537313,0.742424,1.346939,0.000403
58,53,1,93,51,0.645833,0.981481,0.363014,0.981481,0.636986,0.53,0.737374,1.33105,0.000411
59,53,1,92,52,0.638889,0.981481,0.365517,0.981481,0.634483,0.532663,0.732323,1.34023,0.000429
60,53,1,91,53,0.631944,0.981481,0.368056,0.981481,0.631944,0.535354,0.727273,1.349537,0.000463
61,53,1,90,54,0.625,0.981481,0.370629,0.981481,0.629371,0.538071,0.722222,1.358974,0.000479
62,53,1,89,55,0.618056,0.981481,0.373239,0.981481,0.626761,0.540816,0.717172,1.368545,0.000493
63,53,1,88,56,0.611111,0.981481,0.375887,0.981481,0.624113,0.54359,0.712121,1.378251,0.000533
64,53,1,87,57,0.604167,0.981481,0.378571,0.981481,0.621429,0.546392,0.707071,1.388095,0.000539
65,53,1,86,58,0.597222,0.981481,0.381295,0.981481,0.618705,0.549223,0.70202,1.398082,0.000556
66,53,1,85,59,0.590278,0.981481,0.384058,0.981481,0.615942,0.552083,0.69697,1.408213,0.00058
67,53,1,84,60,0.583333,0.981481,0.386861,0.981481,0.613139,0.554974,0.691919,1.418491,0.000583
68,53,1,83,61,0.576389,0.981481,0.389706,0.981481,0.610294,0.557895,0.686869,1.428922,0.00059
69,53,1,82,62,0.569444,0.981481,0.392593,0.981481,0.607407,0.560847,0.681818,1.439506,0.00059
70,53,1,81,63,0.5625,0.981481,0.395522,0.981481,0.604478,0.56383,0.676768,1.450249,0.000595
71,53,1,80,64,0.555556,0.981481,0.398496,0.981481,0.601504,0.566845,0.671717,1.461153,0.000619
72,53,1,79,65,0.548611,0.981481,0.401515,0.981481,0.598485,0.569892,0.666667,1.472222,0.000707
73,53,1,78,66,0.541667,0.981481,0.40458,0.981481,0.59542,0.572973,0.661616,1.483461,0.000729
74,53,1,77,67,0.534722,0.981481,0.407692,0.981481,0.592308,0.576087,0.656566,1.494872,0.000739
75,53,1,76,68,0.527778,0.981481,0.410853,0.981481,0.589147,0.579235,0.651515,1.50646,0.000799
76,53,1,75,69,0.520833,0.981481,0.414063,0.981481,0.585938,0.582418,0.646465,1.518229,0.000817
77,53,1,74,70,0.513889,0.981481,0.417323,0.981481,0.582677,0.585635,0.641414,1.530184,0.000838
78,53,1,73,71,0.506944,0.981481,0.420635,0.981481,0.579365,0.588889,0.636364,1.542328,0.00085
79,53,1,72,72,0.5,0.981481,0.424,0.981481,0.576,0.592179,0.631313,1.554667,0.00102
80,53,1,71,73,0.493056,0.981481,0.427419,0.981481,0.572581,0.595506,0.626263,1.567204,0.001117
81,53,1,70,74,0.486111,0.981481,0.430894,0.981481,0.569106,0.59887,0.621212,1.579946,0.001126
82,53,1,69,75,0.479167,0.981481,0.434426,0.981481,0.565574,0.602273,0.616162,1.592896,0.001197
83,53,1,68,76,0.472222,0.981481,0.438017,0.981481,0.561983,0.605714,0.611111,1.606061,0.001234
84,53,1,67,77,0.465278,0.981481,0.441667,0.981481,0.558333,0.609195,0.606061,1.619444,0.001261
85,53,1,66,78,0.458333,0.981481,0.445378,0.981481,0.554622,0.612717,0.60101,1.633053,0.001277
86,53,1,65,79,0.451389,0.981481,0.449153,0.981481,0.550847,0.616279,0.59596,1.646893,0.001291
87,53,1,64,80,0.444444,0.981481,0.452991,0.981481,0.547009,0.619883,0.590909,1.660969,0.001316
88,53,1,63,81,0.4375,0.981481,0.456897,0.981481,0.543103,0.623529,0.585859,1.675287,0.001327
89,53,1,62,82,0.430556,0.981481,0.46087,0.981481,0.53913,0.627219,0.580808,1.689855,0.001405
90,53,1,61,83,0.423611,0.981481,0.464912,0.981481,0.535088,0.630952,0.575758,1.704678,0.001406
91,53,1,60,84,0.416667,0.981481,0.469027,0.981481,0.530973,0.634731,0.570707,1.719764,0.001421
92,53,1,59,85,0.409722,0.981481,0.473214,0.981481,0.526786,0.638554,0.565657,1.735119,0.001528
93,53,1,58,86,0.402778,0.981481,0.477477,0.981481,0.522523,0.642424,0.560606,1.750751,0.001636
94,53,1,57,87,0.395833,0.981481,0.481818,0.981481,0.518182,0.646341,0.555556,1.766667,0.001853
95,53,1,56,88,0.388889,0.981481,0.486239,0.981481,0.513761,0.650307,0.550505,1.782875,0.00186
96,53,1,55,89,0.381944,0.981481,0.490741,0.981481,0.509259,0.654321,0.545455,1.799383,0.002014
97,53,1,54,90,0.375,0.981481,0.495327,0.981481,0.504673,0.658385,0.540404,1.816199,0.002049
98,53,1,53,91,0.368056,0.981481,0.5,0.981481,0.5,0.6625,0.535354,1.833333,0.002059
99,53,1,52,92,0.361111,0.981481,0.504762,0.981481,0.495238,0.666667,0.530303,1.850794,0.002063
100,53,1,51,93,0.354167,0.981481,0.509615,0.981481,0.490385,0.670886,0.525253,1.86859,0.002112
101,53,1,50,94,0.347222,0.981481,0.514563,0.981481,0.485437,0.675159,0.520202,1.886731,0.002136
102,53,1,49,95,0.340278,0.981481,0.519608,0.981481,0.480392,0.679487,0.515152,1.905229,0.002146
103,53,1,48,96,0.333333,0.981481,0.524752,0.981481,0.475248,0.683871,0.510101,1.924092,0.002253
104,53,1,47,97,0.326389,0.981481,0.53,0.981481,0.47,0.688312,0.505051,1.943333,0.002299
105,53,1,46,98,0.319444,0.981481,0.535354,0.981481,0.464646,0.69281,0.5,1.962963,0.002327
106,53,1,45,99,0.3125,0.981481,0.540816,0.981481,0.459184,0.697368,0.494949,1.982993,0.002358
107,53,1,44,100,0.305556,0.981481,0.546392,0.981481,0.453608,0.701987,0.489899,2.003436,0.002462
108,53,1,43,101,0.298611,0.981481,0.552083,0.981481,0.447917,0.706667,0.484848,2.024306,0.002473
109,53,1,42,102,0.291667,0.981481,0.557895,0.981481,0.442105,0.711409,0.479798,2.045614,0.002556
110,53,1,41,103,0.284722,0.981481,0.56383,0.981481,0.43617,0.716216,0.474747,2.067376,0.002578
111,53,1,40,104,0.277778,0.981481,0.569892,0.981481,0.430108,0.721088,0.469697,2.089606,0.00262
112,53,1,39,105,0.270833,0.981481,0.576087,0.981481,0.423913,0.726027,0.464646,2.112319,0.002685
113,53,1,38,106,0.263889,0.981481,0.582418,0.981481,0.417582,0.731034,0.459596,2.135531,0.002733
114,53,1,37,107,0.256944,0.981481,0.588889,0.981481,0.411111,0.736111,0.454545,2.159259,0.002911
115,53,1,36,108,0.25,0.981481,0.595506,0.981481,0.404494,0.741259,0.449495,2.183521,0.003244
116,53,1,35,109,0.243056,0.981481,0.602273,0.981481,0.397727,0.746479,0.444444,2.208333,0.003571
117,53,1,34,110,0.236111,0.981481,0.609195,0.981481,0.390805,0.751773,0.439394,2.233716,0.003588
118,53,1,33,111,0.229167,0.981481,0.616279,0.981481,0.383721,0.757143,0.434343,2.25969,0.004007
119,53,1,32,112,0.222222,0.981481,0.623529,0.981481,0.376471,0.76259,0.429293,2.286275,0.004133
120,53,1,31,113,0.215278,0.981481,0.630952,0.981481,0.369048,0.768116,0.424242,2.313492,0.004786
121,53,1,30,114,0.208333,0.981481,0.638554,0.981481,0.361446,0.773723,0.419192,2.341365,0.00491
122,53,1,29,115,0.201389,0.981481,0.646341,0.981481,0.353659,0.779412,0.414141,2.369919,0.005228
123,53,1,28,116,0.194444,0.981481,0.654321,0.981481,0.345679,0.785185,0.409091,2.399177,0.005371
124,53,1,27,117,0.1875,0.981481,0.6625,0.981481,0.3375,0.791045,0.40404,2.429167,0.005685
125,53,1,26,118,0.180556,0.981481,0.670886,0.981481,0.329114,0.796992,0.39899,2.459916,0.005978
126,53,1,25,119,0.173611,0.981481,0.679487,0.981481,0.320513,0.80303,0.393939,2.491453,0.00603
127,53,1,24,120,0.166667,0.981481,0.688312,0.981481,0.311688,0.80916,0.388889,2.52381,0.006212
128,53,1,23,121,0.159722,0.981481,0.697368,0.981481,0.302632,0.815385,0.383838,2.557018,0.006468
129,53,1,22,122,0.152778,0.981481,0.706667,0.981481,0.293333,0.821705,0.378788,2.591111,0.007692
130,53,1,21,123,0.145833,0.981481,0.716216,0.981481,0.283784,0.828125,0.373737,2.626126,0.00804
131,53,1,20,124,0.138889,0.981481,0.726027,0.981481,0.273973,0.834646,0.368687,2.6621,0.009512
132,53,1,19,125,0.131944,0.981481,0.736111,0.981481,0.263889,0.84127,0.363636,2.699074,0.011152
133,53,1,18,126,0.125,0.981481,0.746479,0.981481,0.253521,0.848,0.358586,2.737089,0.011282
134,53,1,17,127,0.118056,0.981481,0.757143,0.981481,0.242857,0.854839,0.353535,2.77619,0.011482
135,53,1,16,128,0.111111,0.981481,0.768116,0.981481,0.231884,0.861789,0.348485,2.816425,0.013313
136,53,1,15,129,0.104167,0.981481,0.779412,0.981481,0.220588,0.868852,0.343434,2.857843,0.014312
137,53,1,14,130,0.097222,0.981481,0.791045,0.981481,0.208955,0.876033,0.338384,2.900498,0.018803
138,53,1,13,131,0.090278,0.981481,0.80303,0.981481,0.19697,0.883333,0.333333,2.944444,0.021253
139,53,1,12,132,0.083333,0.981481,0.815385,0.981481,0.184615,0.890756,0.328283,2.989744,0.025432
140,53,1,11,133,0.076389,0.981481,0.828125,0.981481,0.171875,0.898305,0.323232,3.036458,0.027265
141,53,1,10,134,0.069444,0.981481,0.84127,0.981481,0.15873,0.905983,0.318182,3.084656,0.033072
142,53,1,9,135,0.0625,0.981481,0.854839,0.981481,0.145161,0.913793,0.313131,3.134409,0.041799
143,53,1,8,136,0.055556,0.981481,0.868852,0.981481,0.131148,0.921739,0.308081,3.185792,0.068478
144,53,1,7,137,0.048611,0.981481,0.883333,0.981481,0.116667,0.929825,0.30303,3.238889,0.086528
145,53,1,6,138,0.041667,0.981481,0.898305,0.981481,0.101695,0.938053,0.29798,3.293785,0.087026
146,53,1,5,139,0.034722,0.981481,0.913793,0.981481,0.086207,0.946429,0.292929,3.350575,0.160223
147,53,1,4,140,0.027778,0.981481,0.929825,0.981481,0.070175,0.954955,0.287879,3.409357,0.452199
148,53,1,3,141,0.020833,0.981481,0.946429,0.981481,0.053571,0.963636,0.282828,3.470238,0.494203
149,53,1,2,142,0.013889,0.981481,0.963636,0.981481,0.036364,0.972477,0.277778,3.533333,0.843879
150,52,2,2,142,0.013889,0.962963,0.962963,0.962963,0.037037,0.962963,0.272727,3.530864,0.929045
151,52,2,1,143,0.006944,0.962963,0.981132,0.962963,0.018868,0.971963,0.267677,3.597484,0.936445
152,51,3,1,143,0.006944,0.944444,0.980769,0.944444,0.019231,0.962264,0.262626,3.596154,0.943641
153,50,4,1,143,0.006944,0.925926,0.980392,0.925926,0.019608,0.952381,0.257576,3.594771,0.948667
154,49,5,1,143,0.006944,0.907407,0.98,0.907407,0.02,0.942308,0.252525,3.593333,0.961198
155,48,6,1,143,0.006944,0.888889,0.979592,0.888889,0.020408,0.932039,0.247475,3.591837,0.962443
156,47,7,1,143,0.006944,0.87037,0.979167,0.87037,0.020833,0.921569,0.242424,3.590278,0.965212
157,46,8,1,143,0.006944,0.851852,0.978723,0.851852,0.021277,0.910891,0.237374,3.588652,0.96649
158,45,9,1,143,0.006944,0.833333,0.978261,0.833333,0.021739,0.9,0.232323,3.586957,0.976287
159,44,10,1,143,0.006944,0.814815,0.977778,0.814815,0.022222,0.888889,0.227273,3.585185,0.97677
160,43,11,1,143,0.006944,0.796296,0.977273,0.796296,0.022727,0.877551,0.222222,3.583333,0.976896
161,42,12,1,143,0.006944,0.777778,0.976744,0.777778,0.023256,0.865979,0.217172,3.581395,0.977405
162,41,13,1,143,0.006944,0.759259,0.97619,0.759259,0.02381,0.854167,0.212121,3.579365,0.977599
163,40,14,1,143,0.006944,0.740741,0.97561,0.740741,0.02439,0.842105,0.207071,3.577236,0.978989
164,39,15,1,143,0.006944,0.722222,0.975,0.722222,0.025,0.829787,0.20202,3.575,0.980155
165,38,16,1,143,0.006944,0.703704,0.974359,0.703704,0.025641,0.817204,0.19697,3.57265,0.98728
166,37,17,1,143,0.006944,0.685185,0.973684,0.685185,0.026316,0.804348,0.191919,3.570175,0.990669
167,36,18,1,143,0.006944,0.666667,0.972973,0.666667,0.027027,0.791209,0.186869,3.567568,0.990882
168,35,19,1,143,0.006944,0.648148,0.972222,0.648148,0.027778,0.777778,0.181818,3.564815,0.990987
169,34,20,1,143,0.006944,0.62963,0.971429,0.62963,0.028571,0.764045,0.176768,3.561905,0.991005
170,33,21,1,143,0.006944,0.611111,0.970588,0.611111,0.029412,0.75,0.171717,3.558824,0.991392
171,32,22,1,143,0.006944,0.592593,0.969697,0.592593,0.030303,0.735632,0.166667,3.555556,0.99224
172,31,23,1,143,0.006944,0.574074,0.96875,0.574074,0.03125,0.72093,0.161616,3.552083,0.992672
173,30,24,1,143,0.006944,0.555556,0.967742,0.555556,0.032258,0.705882,0.156566,3.548387,0.992706
174,29,25,1,143,0.006944,0.537037,0.966667,0.537037,0.033333,0.690476,0.151515,3.544444,0.992993
175,28,26,1,143,0.006944,0.518519,0.965517,0.518519,0.034483,0.674699,0.146465,3.54023,0.993368
176,27,27,1,143,0.006944,0.5,0.964286,0.5,0.035714,0.658537,0.141414,3.535714,0.993966
177,27,27,0,144,0,0.5,1,0.5,0,0.666667,0.136364,3.666667,0.994451
178,26,28,0,144,0,0.481481,1,0.481481,0,0.65,0.131313,3.666667,0.994513
179,25,29,0,144,0,0.462963,1,0.462963,0,0.632911,0.126263,3.666667,0.994539
180,24,30,0,144,0,0.444444,1,0.444444,0,0.615385,0.121212,3.666667,0.99501
181,23,31,0,144,0,0.425926,1,0.425926,0,0.597403,0.116162,3.666667,0.995201
182,22,32,0,144,0,0.407407,1,0.407407,0,0.578947,0.111111,3.666667,0.995705
183,21,33,0,144,0,0.388889,1,0.388889,0,0.56,0.106061,3.666667,0.996066
184,20,34,0,144,0,0.37037,1,0.37037,0,0.540541,0.10101,3.666667,0.996353
185,19,35,0,144,0,0.351852,1,0.351852,0,0.520548,0.09596,3.666667,0.996429
186,18,36,0,144,0,0.333333,1,0.333333,0,0.5,0.090909,3.666667,0.996994
187,17,37,0,144,0,0.314815,1,0.314815,0,0.478873,0.085859,3.666667,0.997064
188,16,38,0,144,0,0.296296,1,0.296296,0,0.457143,0.080808,3.666667,0.9971
189,15,39,0,144,0,0.277778,1,0.277778,0,0.434783,0.075758,3.666667,0.997103
190,14,40,0,144,0,0.259259,1,0.259259,0,0.411765,0.070707,3.666667,0.997197
191,13,41,0,144,0,0.240741,1,0.240741,0,0.38806,0.065657,3.666667,0.99791
192,12,42,0,144,0,0.222222,1,0.222222,0,0.363636,0.060606,3.666667,0.998024
193,11,43,0,144,0,0.203704,1,0.203704,0,0.338462,0.055556,3.666667,0.998245
194,10,44,0,144,0,0.185185,1,0.185185,0,0.3125,0.050505,3.666667,0.998251
195,9,45,0,144,0,0.166667,1,0.166667,0,0.285714,0.045455,3.666667,0.998259
196,8,46,0,144,0,0.148148,1,0.148148,0,0.258065,0.040404,3.666667,0.998524
197,7,47,0,144,0,0.12963,1,0.12963,0,0.229508,0.035354,3.666667,0.998739
198,6,48,0,144,0,0.111111,1,0.111111,0,0.2,0.030303,3.666667,0.99874
199,5,49,0,144,0,0.092593,1,0.092593,0,0.169492,0.025253,3.666667,0.998803
200,4,50,0,144,0,0.074074,1,0.074074,0,0.137931,0.020202,3.666667,0.999159
201,3,51,0,144,0,0.055556,1,0.055556,0,0.105263,0.015152,?,0.999344
202,2,52,0,144,0,0.037037,1,0.037037,0,0.071429,0.010101,?,0.999377
203,1,53,0,144,0,0.018519,1,0.018519,0,0.036364,0.005051,?,0.999383
204,0,54,0,144,0,0,?,0,?,?,0,?,0.999393